{
  "vpc-provider:account=183147974733:region=us-west-2:returnAsymmetricSubnets=true": {
    "vpcId": "vpc-3ae2d443",
    "vpcCidrBlock": "172.31.0.0/16",
    "ownerAccountId": "183147974733",
    "availabilityZones": [],
    "subnetGroups": [
      {
        "name": "Public",
        "type": "Public",
        "subnets": [
          {
            "subnetId": "subnet-60d24419",
            "cidr": "172.31.16.0/20",
            "availabilityZone": "us-west-2a",
            "routeTableId": "rtb-5bd2ef23"
          },
          {
            "subnetId": "subnet-feb000b5",
            "cidr": "172.31.32.0/20",
            "availabilityZone": "us-west-2b",
            "routeTableId": "rtb-5bd2ef23"
          },
          {
            "subnetId": "subnet-0fd2bb55",
            "cidr": "172.31.0.0/20",
            "availabilityZone": "us-west-2c",
            "routeTableId": "rtb-5bd2ef23"
          },
          {
            "subnetId": "subnet-7b995150",
            "cidr": "172.31.48.0/20",
            "availabilityZone": "us-west-2d",
            "routeTableId": "rtb-5bd2ef23"
          }
        ]
      }
    ]
  }
}
